<?xml version="1.0" encoding="UTF-8" standalone="no"?>
<!DOCTYPE svg PUBLIC "-//W3C//DTD SVG 1.1//EN" "http://www.w3.org/Graphics/SVG/1.1/DTD/svg11.dtd">
<svg width="100%" height="100%" viewBox="0 0 240 240" version="1.1" xmlns="http://www.w3.org/2000/svg" xmlns:xlink="http://www.w3.org/1999/xlink" xml:space="preserve" xmlns:serif="http://www.serif.com/" style="fill-rule:evenodd;clip-rule:evenodd;stroke-linejoin:round;stroke-miterlimit:2;">
    <g id="Tux-Punched" serif:id="Tux Punched">
        <path id="Tux_White" d="M85,83C85,83 84.939,59.51 84.84,52.307C84.778,47.738 84.471,30.469 87.801,21.928C91.419,12.647 100.575,0 120,0C135.831,0 145.078,3.054 154,11C160.792,17.049 166.547,29.494 166,48C165.453,66.506 166.746,74.714 168,80C169.254,85.286 178.151,97.413 181.326,106.563C184.501,115.714 189.533,126.767 190.57,139.991C190.943,144.753 190.103,144.66 188.702,145.593C188.702,145.593 190.42,147.559 193.559,147.294C202.148,146.571 208.104,147.237 213.913,153.17C224.029,163.502 212.489,174.269 219.516,182.102C223.119,186.119 230.898,183.199 234.515,193.885C237.053,201.384 230.78,209.011 227.231,212.466C223.683,215.921 214.632,219.358 200.9,224.138C183.828,230.08 180.638,240.082 167.566,240C154.494,239.918 149.451,237.584 143.009,228.713C143.009,228.713 117.127,226.832 104.446,228.059C101.551,228.34 98.368,230.614 96.875,231.925C94.584,233.936 91.775,239.204 81.289,240C69.626,240.886 64.244,234.715 49.379,233.894C34.514,233.072 20.137,232.736 12.906,229.657C11.373,229.005 7.568,226.555 7.215,221.343C6.807,215.292 10.41,211.587 11.058,208.123C13.691,194.061 -0.369,185.978 3,174.994C7.622,159.923 23.967,165.298 28.613,161.884C36.568,156.039 34.168,152.335 40.632,145.843C43.232,143.233 46.63,141.297 53.995,140.789C53.995,140.789 50.574,139.923 55.429,128.27C60.285,116.617 70.067,105.974 80.229,93.684C83.441,89.8 84.841,86.882 85,83ZM201.334,161.433C208.601,165.683 200.022,181.219 204.855,187.454C209.328,193.225 215.151,190.581 216.747,196.827C217.302,198.997 215.521,204.619 211.635,205.928C205.019,208.159 200.132,206.517 193.029,210.584C185.927,214.65 179.24,218.566 174.684,221.367C170.129,224.167 162.852,224.464 158.957,221.711C154.665,218.678 154.479,214.832 156.061,208.74C157.142,204.579 157.439,199.652 157.463,194.003C157.491,187.497 156.722,178.535 156.3,173.93C155.645,166.767 155.525,159.412 162.657,156.568C168.099,154.398 171.419,163.901 179.531,164.759C188.436,165.7 192.168,156.073 201.334,161.433ZM20.114,181.048C23.395,174.791 34.241,179.345 40.459,173.103C45.612,167.93 43.996,159.721 51.416,159.161C56.254,158.796 59.208,161.444 61.835,166.921C64.738,172.976 66.352,183.065 70.013,190.385C73.673,197.705 77.856,203.681 80.396,208.387C82.935,213.093 83.1,217.59 81.026,220.527C78.79,223.694 71.363,223.754 67.123,221.974C64.347,220.807 58.658,218.696 52.16,218.397C45.661,218.098 37.154,218.594 34.39,218.818C31.627,219.042 25.356,219.982 24.178,216.449C22.323,210.892 26.646,208.955 27.136,202.624C27.776,194.351 15.853,189.172 20.114,181.048ZM95.358,86.102C95.358,86.102 103.665,96.88 108.908,97.113C117.102,97.477 132.51,92.304 142.699,83.854C142.699,83.854 144.218,90.922 146.641,94.335C148.279,96.642 152.034,100.923 155.149,105.965C158.263,111.007 166.398,133.486 160.864,133.267C157.004,133.114 144.019,132.407 137.736,134.817C130.477,137.601 124.941,144.915 124.369,152.866C123.682,162.428 127.72,164.558 143.476,164.898C143.476,164.898 145.123,178.532 144.437,187.667C143.878,195.103 143.096,200.927 140.855,205.596C140.855,205.596 116.975,210.929 102.531,202.499C88.861,194.521 83.117,174.957 82.454,169.542C82.454,169.542 93.201,170.938 99.246,163.618C100.915,161.596 101.785,157.549 97.739,153.26C90.744,145.844 80.324,139.911 79.359,134.675C78.132,128.02 80.993,119.222 86.667,109.425C92.104,100.038 93.841,93.911 95.358,86.102ZM93.328,69.045C93.523,67.645 96.041,68.355 102.045,64.563C106.368,61.833 110.871,59.081 114.571,59.081C121.044,59.081 124.243,61.613 128.118,63.763C136.626,68.483 140.061,67.581 140.252,69.063C140.444,70.545 136.794,70.691 131.755,73.651C128.097,75.799 119.145,78.859 111.639,78.768C107.314,78.716 102.145,75.662 99.331,73.449C95.343,70.313 93.219,69.826 93.328,69.045ZM123.858,53.997C123.858,53.997 122.484,46.254 123.606,42.134C124.639,38.339 127.797,35.174 130.245,34.217C133.336,33.008 139.545,33.362 142.369,36.015C147.102,40.461 147.922,47.836 145.322,59.081C145.322,59.081 142.21,58.633 140.26,57.883C140.26,57.883 143.019,54.197 142.606,49.171C142.402,46.684 140.174,41.682 136.196,41.377C132.219,41.071 129.831,42.474 127.813,46.188C126.521,48.566 126.949,52.787 127.178,55.037C127.178,55.037 125.488,54.615 123.858,53.997ZM109.392,53.997C109.392,53.997 110.375,46.671 109.631,42.44C108.986,38.771 105.415,33.413 99.974,34.27C96.117,34.878 92.373,39.976 92.278,45.26C92.15,52.319 93.324,57.26 93.324,57.26C93.324,57.26 95.026,57.003 96.556,56.668C96.556,56.668 94.618,51.591 95.194,48.559C95.962,44.514 97.775,42.296 100.166,41.866C103.083,41.341 104.962,43.253 106.046,46.317C107.12,49.353 106.954,52.049 106.333,54.678L109.392,53.997Z" style="fill:white;"/>
    </g>
</svg>
