<?xml version="1.0" encoding="UTF-8" standalone="no"?>
<!DOCTYPE svg PUBLIC "-//W3C//DTD SVG 1.1//EN" "http://www.w3.org/Graphics/SVG/1.1/DTD/svg11.dtd">
<svg width="100%" height="100%" viewBox="0 0 240 240" version="1.1" xmlns="http://www.w3.org/2000/svg" xmlns:xlink="http://www.w3.org/1999/xlink" xml:space="preserve" xmlns:serif="http://www.serif.com/" style="fill-rule:evenodd;clip-rule:evenodd;stroke-linejoin:round;stroke-miterlimit:2;">
    <g transform="matrix(1.33333,0,0,1.33333,-40,-40)">
        <path d="M140,32.3L140,52.9C168.9,61.5 190,88.3 190,120C190,151.7 168.9,178.4 140,187L140,207.7C180,198.6 210,162.8 210,120C210,77.2 180,41.4 140,32.3Z" style="fill:white;fill-opacity:0.4;"/>
        <path d="M165,120C165,102.3 155,87.1 140,79.7L140,160C155,152.9 165,137.6 165,120Z" style="fill:white;fill-opacity:0.4;"/>
        <path d="M30,90L30,150L70,150L120,200L120,40L70,90L30,90Z" style="fill:white;fill-opacity:0.7;"/>
    </g>
</svg>
